<?xml version="1.0" encoding="UTF-8"?>
<session version="1.0">
<refactoring comment="Delete resource &apos;UDP_Reciever_Test&apos;" deleteContents="false" description="Delete resource &apos;UDP_Reciever_Test&apos;" element1="/UDP_Reciever_Test" flags="7" id="org.eclipse.ltk.core.refactoring.delete.resources" resources="1" stamp="1372720358847"/>
</session>