^C:\USERS\JOSHUA\DOCUMENTS\VISUAL STUDIO 2010\PROJECTS\FDM_VALIDATE\FDM_VALIDATE\DEBUG\FDM_VALIDATE.EXE.EMBED.MANIFEST.RES|C:\USERS\JOSHUA\DOCUMENTS\VISUAL STUDIO 2010\PROJECTS\FDM_VALIDATE\FDM_VALIDATE\DEBUG\JPRSIM.OBJ|C:\USERS\JOSHUA\DOCUMENTS\VISUAL STUDIO 2010\PROJECTS\FDM_VALIDATE\FDM_VALIDATE\DEBUG\STDAFX.OBJ
C:\PROGRAM FILES (X86)\MICROSOFT SDKS\WINDOWS\V7.0A\LIB\WS2_32.LIB
C:\PROGRAM FILES (X86)\MICROSOFT SDKS\WINDOWS\V7.0A\LIB\KERNEL32.LIB
C:\PROGRAM FILES (X86)\MICROSOFT SDKS\WINDOWS\V7.0A\LIB\USER32.LIB
C:\PROGRAM FILES (X86)\MICROSOFT SDKS\WINDOWS\V7.0A\LIB\GDI32.LIB
C:\PROGRAM FILES (X86)\MICROSOFT SDKS\WINDOWS\V7.0A\LIB\WINSPOOL.LIB
C:\PROGRAM FILES (X86)\MICROSOFT SDKS\WINDOWS\V7.0A\LIB\COMDLG32.LIB
C:\PROGRAM FILES (X86)\MICROSOFT SDKS\WINDOWS\V7.0A\LIB\ADVAPI32.LIB
C:\PROGRAM FILES (X86)\MICROSOFT SDKS\WINDOWS\V7.0A\LIB\SHELL32.LIB
C:\PROGRAM FILES (X86)\MICROSOFT SDKS\WINDOWS\V7.0A\LIB\OLE32.LIB
C:\PROGRAM FILES (X86)\MICROSOFT SDKS\WINDOWS\V7.0A\LIB\OLEAUT32.LIB
C:\PROGRAM FILES (X86)\MICROSOFT SDKS\WINDOWS\V7.0A\LIB\UUID.LIB
C:\PROGRAM FILES (X86)\MICROSOFT SDKS\WINDOWS\V7.0A\LIB\ODBC32.LIB
C:\PROGRAM FILES (X86)\MICROSOFT SDKS\WINDOWS\V7.0A\LIB\ODBCCP32.LIB
C:\USERS\JOSHUA\DOCUMENTS\VISUAL STUDIO 2010\PROJECTS\FDM_VALIDATE\FDM_VALIDATE\DEBUG\FDM_VALIDATE.EXE.EMBED.MANIFEST.RES
C:\USERS\JOSHUA\DOCUMENTS\VISUAL STUDIO 2010\PROJECTS\FDM_VALIDATE\FDM_VALIDATE\DEBUG\JPRSIM.OBJ
C:\USERS\JOSHUA\DOCUMENTS\VISUAL STUDIO 2010\PROJECTS\FDM_VALIDATE\FDM_VALIDATE\DEBUG\STDAFX.OBJ
C:\WINDOWS\SYSTEM32\TZRES.DLL
C:\USERS\JOSHUA\DOCUMENTS\VISUAL STUDIO 2010\PROJECTS\FDM_VALIDATE\DEBUG\FDM_VALIDATE.ILK
C:\USERS\JOSHUA\DOCUMENTS\VISUAL STUDIO 2010\PROJECTS\FDM_VALIDATE\DEBUG\FDM_VALIDATE.EXE
C:\USERS\JOSHUA\DOCUMENTS\VISUAL STUDIO 2010\PROJECTS\FDM_VALIDATE\DEBUG\FDM_VALIDATE.PDB
C:\WINDOWS\GLOBALIZATION\SORTING\SORTDEFAULT.NLS
C:\PROGRAM FILES (X86)\MICROSOFT VISUAL STUDIO 10.0\VC\LIB\MSVCPRTD.LIB
C:\PROGRAM FILES (X86)\MICROSOFT VISUAL STUDIO 10.0\VC\LIB\MSVCRTD.LIB
C:\PROGRAM FILES (X86)\MICROSOFT VISUAL STUDIO 10.0\VC\LIB\OLDNAMES.LIB
