<?xml version="1.0" encoding="UTF-8"?>
<session version="1.0">
<refactoring comment="Delete 6 resources" deleteContents="false" description="Delete 6 resources" element1="/JPRSIM/source/SockDgramClient.cpp" element2="/JPRSIM/source/SockDgramClient.hpp" element3="/JPRSIM/source/SockDgramServer.cpp" element4="/JPRSIM/source/SockDgramServer.hpp" element5="/JPRSIM/source/Socket.cpp" element6="/JPRSIM/source/Socket.hpp" flags="7" id="org.eclipse.ltk.core.refactoring.delete.resources" resources="6" stamp="1371936811466"/>
</session>